<svg version="1.1" class="concept" xmlns="http://www.w3.org/2000/svg" xmlns:xlink="http://www.w3.org/1999/xlink" x="0px" y="0px"
	 viewBox="0 0 64 64" style="enable-background:new 0 0 64 64;" xml:space="preserve">
<style type="text/css">
	.st0{fill:#1D1D1B;}
	.st1{fill:#FFFFFF;stroke:#1D1D1B;stroke-width:0.9911;stroke-miterlimit:10;}
</style>
<g>
	<path class="st0" d="M36.9,52.5H26.4c-2.5,0-4.6,2-4.6,4.6s2,4.6,4.6,4.6h10.4c2.5,0,4.6-2,4.6-4.6S39.4,52.5,36.9,52.5z"/>
	<path class="st0" d="M43.2,6.9c-4.8-3.6-11-4.6-16.9-2.8c-5.4,1.6-9.9,5.9-11.7,11.1c-2.9,8.4,0.1,17.2,7.4,21.8
		c0.1,0.1,0.1,0.1,0.1,0.2l0,7.5c0,0.5,0.2,1.1,0.6,1.4c0.4,0.4,0.9,0.6,1.5,0.6h15.3c1.1,0,2-0.9,2.1-2l0-7.3
		c0-0.1,0.1-0.2,0.1-0.2c5.5-3.3,8.9-9.3,8.9-15.7C50.6,15.8,47.9,10.4,43.2,6.9z"/>
</g>
</svg>
