<?xml version="1.0" encoding="UTF-8" standalone="no"?>
<!DOCTYPE svg PUBLIC "-//W3C//DTD SVG 1.1//EN" "http://www.w3.org/Graphics/SVG/1.1/DTD/svg11.dtd">
<svg width="100%" height="100%" viewBox="0 0 24 24" version="1.1" xmlns="http://www.w3.org/2000/svg" xmlns:xlink="http://www.w3.org/1999/xlink" xml:space="preserve" xmlns:serif="http://www.serif.com/" style="fill-rule:evenodd;clip-rule:evenodd;stroke-linejoin:round;stroke-miterlimit:2;">
    <path d="M14,0L14,10L16,8.482L18,10L18,0L22,0L22,24L5,24C3.343,24 2,22.657 2,21L2,3C2,1.343 3.343,0 5,0L14,0ZM20,20L5.495,20C4.12,20 4.12,22 5.495,22L20,22L20,20Z"/>
</svg>
