<?xml version="1.0" encoding="UTF-8" standalone="no"?>
<svg
   clip-rule="evenodd"
   fill-rule="evenodd"
   stroke-linejoin="round"
   stroke-miterlimit="2"
   viewBox="0 0 24 24"
   version="1.1"
   id="svg4"
   sodipodi:docname="sort-neutral.svg"
   inkscape:version="1.1.2 (0a00cf5339, 2022-02-04)"
   xmlns:inkscape="http://www.inkscape.org/namespaces/inkscape"
   xmlns:sodipodi="http://sodipodi.sourceforge.net/DTD/sodipodi-0.dtd"
   xmlns="http://www.w3.org/2000/svg"
   xmlns:svg="http://www.w3.org/2000/svg">
  <defs
     id="defs8" />
  <sodipodi:namedview
     id="namedview6"
     pagecolor="#ffffff"
     bordercolor="#666666"
     borderopacity="1.0"
     inkscape:pageshadow="2"
     inkscape:pageopacity="0.0"
     inkscape:pagecheckerboard="0"
     showgrid="false"
     inkscape:zoom="31.708333"
     inkscape:cx="12.015769"
     inkscape:cy="11.526938"
     inkscape:window-width="1920"
     inkscape:window-height="1138"
     inkscape:window-x="0"
     inkscape:window-y="26"
     inkscape:window-maximized="1"
     inkscape:current-layer="svg4" />
  <path
     d="M 9.001,13.76052 H 5.75 c -0.412,0 -0.75,0.335 -0.75,0.752 0,0.188 0.071,0.375 0.206,0.518 1.685,1.775 4.692,4.945 6.069,6.396 0.189,0.2 0.452,0.312 0.725,0.312 0.274,0 0.536,-0.112 0.725,-0.312 1.377,-1.451 4.385,-4.621 6.068,-6.396 0.136,-0.143 0.207,-0.33 0.207,-0.518 0,-0.417 -0.337,-0.752 -0.75,-0.752 H 14.999 L 14.95208,9.081169 C 14.94678,8.550191 13.74956,8.591079 13.219564,8.588998 l -1.791243,-0.007 C 10.898325,8.579898 9.0102322,9.0427745 9.0091934,9.573782 Z"
     fill-rule="nonzero"
     id="path2"
     sodipodi:nodetypes="cssccsccsscssssc" />
  <path
     d="m 9.0883017,9.9827365 h -3.251 c -0.412,0 -0.75,-0.3350055 -0.75,-0.752012 0,-0.188003 0.071,-0.375006 0.206,-0.5180075 1.685,-1.775 4.6920001,-4.945 6.0690003,-6.396 0.189,-0.2 0.452,-0.312 0.725,-0.312 0.274,0 0.536,0.112 0.725,0.312 1.377,1.451 4.385,4.621 6.068,6.396 0.136,0.1430015 0.207,0.3300045 0.207,0.5180075 0,0.4170065 -0.337,0.752012 -0.75,0.752012 h -3.251 c -5.9980003,0 -0.970557,-0.016971 -5.9980003,0 z"
     fill-rule="nonzero"
     id="path2-3"
     sodipodi:nodetypes="cssccsccsscc" />
</svg>
